%YAML 1.1
%TAG !u! tag:unity3d.com,2011:
--- !u!114 &11400000
MonoBehaviour:
  m_ObjectHideFlags: 0
  m_CorrespondingSourceObject: {fileID: 0}
  m_PrefabInstance: {fileID: 0}
  m_PrefabAsset: {fileID: 0}
  m_GameObject: {fileID: 0}
  m_Enabled: 1
  m_EditorHideFlags: 0
  m_Script: {fileID: 11500000, guid: 063eb02ca93185443b171a250a85da8a, type: 3}
  m_Name: Antidote
  m_EditorClassIdentifier: 
  name: Antidote
  description: Cures Poison
  usable: 1
  amount: 0
  isStackable: 1
  stackIsMaxed: 0
  maxStack: 0
  icon: {fileID: 21300000, guid: ee360703d5c82bf49aee2bd56890aea9, type: 3}
  consumable: 1
  hasRandomEffect: 0
  buffs:
  - {fileID: 11400000, guid: 4583dc9533beda7499e41e30fa586db1, type: 2}
